{
    "data": [
        {
            "id": 1544,
            "first_name": "Kari",
            "last_name": "Lund",
            "email": "kari.lund@nkcschools.org",
            "organization_name": "North Kansas City Schools",
            "organization_type": null,
            "job_title": "Teacher",
            "address": null,
            "phone_number": null,
            "website": null,
            "subscribed": true,
            "default_organization": null,
            "organization_role": "Member",
            "projects_count": 1
        },
        {
            "id": 1595,
            "first_name": "Song",
            "last_name": "Nam",
            "email": "tpqtrang@songnam.net",
            "organization_name": "Ms TRANG",
            "organization_type": "Architecture design",
            "job_title": "Tư vấn giám sát",
            "address": null,
            "phone_number": "84769861168",
            "website": "http://www.songnam.net/Dich-vu-va-Du-an/Tu-van-giam-sat/48",
            "subscribed": true,
            "default_organization": null,
            "organization_role": "Member",
            "projects_count": 1
        },
        {
            "id": 4,
            "first_name": "kochdemo",
            "last_name": "",
            "email": "kochdemo@curriki.org",
            "organization_name": "",
            "organization_type": null,
            "job_title": "",
            "address": null,
            "phone_number": null,
            "website": null,
            "subscribed": false,
            "default_organization": null,
            "organization_role": "Member",
            "projects_count": 1
        },
        {
            "id": 5,
            "first_name": "jonathanbrusco79",
            "last_name": "",
            "email": "jonathanbrusco79@gmail.com",
            "organization_name": "",
            "organization_type": null,
            "job_title": "",
            "address": null,
            "phone_number": null,
            "website": null,
            "subscribed": true,
            "default_organization": null,
            "organization_role": "Member",
            "projects_count": 1
        },
        {
            "id": 1545,
            "first_name": "Tara",
            "last_name": "Miller",
            "email": "voorhtk@nv.ccsd.net",
            "organization_name": "CCSD",
            "organization_type": null,
            "job_title": "Theme Coordinator",
            "address": null,
            "phone_number": null,
            "website": null,
            "subscribed": true,
            "default_organization": null,
            "organization_role": "Member",
            "projects_count": 1
        },
        {
            "id": 1596,
            "first_name": "Georgia",
            "last_name": "Blacklock",
            "email": "georgiablacklock7@gmail.com",
            "organization_name": "Australian Catholic University",
            "organization_type": null,
            "job_title": "pre-teacher",
            "address": null,
            "phone_number": null,
            "website": null,
            "subscribed": true,
            "default_organization": null,
            "organization_role": "Member"
        },
        {
            "id": 1628,
            "first_name": "John",
            "last_name": "Hochstetler",
            "email": "jhochstetler@hse.k12.in.us",
            "organization_name": "Riverside Intermediate School",
            "organization_type": null,
            "job_title": "Teacher Librarian",
            "address": null,
            "phone_number": null,
            "website": null,
            "subscribed": true,
            "default_organization": null,
            "organization_role": "Member",
            "projects_count": 1
        },
        {
            "id": 1546,
            "first_name": "Michelle",
            "last_name": "Floyd",
            "email": "michellefloyd@spsk12.net",
            "organization_name": "Kilby Shores Elementary School",
            "organization_type": null,
            "job_title": "Teacher",
            "address": null,
            "phone_number": null,
            "website": null,
            "subscribed": true,
            "default_organization": null,
            "organization_role": "Member"
        },
        {
            "id": 1597,
            "first_name": "Madison",
            "last_name": "Cathey",
            "email": "madicat94@hotmail.com",
            "organization_name": "SJSD",
            "organization_type": null,
            "job_title": "Teacher",
            "address": null,
            "phone_number": null,
            "website": null,
            "subscribed": true,
            "default_organization": null,
            "organization_role": "Member",
            "projects_count": 1
        },
        {
            "id": 710,
            "first_name": "Anthony",
            "last_name": "Baker",
            "email": "abaker@digitalpromise.org",
            "organization_name": "",
            "organization_type": null,
            "job_title": "",
            "address": null,
            "phone_number": null,
            "website": null,
            "subscribed": true,
            "default_organization": null,
            "organization_role": "Member",
            "projects_count": 2
        },
        {
            "id": 1547,
            "first_name": "John",
            "last_name": "Lowe",
            "email": "john_lowe@baylor.edu",
            "organization_name": "Baylor",
            "organization_type": null,
            "job_title": "Instructional Designer",
            "address": null,
            "phone_number": null,
            "website": null,
            "subscribed": true,
            "default_organization": null,
            "organization_role": "Member",
            "projects_count": 7
        },
        {
            "id": 1598,
            "first_name": "Meredith",
            "last_name": "Carlton",
            "email": "meredith@beaconacademync.org",
            "organization_name": "Beacon Academy Inc",
            "organization_type": null,
            "job_title": null,
            "address": null,
            "phone_number": null,
            "website": null,
            "subscribed": true,
            "default_organization": null,
            "organization_role": "Member"
        },
        {
            "id": 1629,
            "first_name": "Joy",
            "last_name": "Prescott",
            "email": "2019fltoy@gmail.com",
            "organization_name": "Educator",
            "organization_type": null,
            "job_title": "Educator",
            "address": null,
            "phone_number": null,
            "website": null,
            "subscribed": false,
            "default_organization": null,
            "organization_role": "Member",
            "projects_count": 5
        },
        {
            "id": 1548,
            "first_name": "Mary",
            "last_name": "Regione",
            "email": "maryregione@spsk12.net",
            "organization_name": "KIlby Shores Elementary",
            "organization_type": null,
            "job_title": "Teacher",
            "address": null,
            "phone_number": null,
            "website": null,
            "subscribed": true,
            "default_organization": null,
            "organization_role": "Member"
        },
        {
            "id": 1599,
            "first_name": "Tionia",
            "last_name": "Richardson",
            "email": "richmathteacher@gmail.com",
            "organization_name": "Rock Hill Schools",
            "organization_type": null,
            "job_title": "Teacher",
            "address": null,
            "phone_number": null,
            "website": null,
            "subscribed": true,
            "default_organization": null,
            "organization_role": "Member",
            "projects_count": 1
        }
    ],
    "links": {
        "first": "http://127.0.0.1:8000/api/v1/suborganizations/1/users?page=1",
        "last": "http://127.0.0.1:8000/api/v1/suborganizations/1/users?page=109",
        "prev": null,
        "next": "http://127.0.0.1:8000/api/v1/suborganizations/1/users?page=2"
    },
    "meta": {
        "current_page": 1,
        "from": 1,
        "last_page": 109,
        "path": "http://127.0.0.1:8000/api/v1/suborganizations/1/users",
        "per_page": 15,
        "to": 15,
        "total": 1627
    }
}