## Autogenerated by Scribe. DO NOT MODIFY.

name: '27. Admin/Queues'
description: |-

  APIs for queues monitoring on admin panel.
endpoints:
  -
    httpMethods:
      - GET
    uri: api/v1/queue-monitor/jobs
    metadata:
      groupName: '27. Admin/Queues'
      groupDescription: |-

        APIs for queues monitoring on admin panel.
      subgroup: null
      subgroupDescription: null
      title: 'Get All Jobs'
      description: 'Returns the pending or failed jobs paginated response with pagination links (DataTables are fully supported - All Params).'
      authenticated: false
      custom: []
    headers:
      Content-Type: application/json
      Accept: application/json
    urlParameters: []
    cleanUrlParameters: []
    queryParameters:
      filter:
        name: filter
        description: '1 for pending jobs, 2 for failed. Default 1.'
        required: false
        example: '1'
        type: string
        custom: []
      page:
        name: page
        description: 'Offset for getting the paginated response, Default 1.'
        required: false
        example: '1'
        type: string
        custom: []
      size:
        name: size
        description: 'Limit for getting the paginated records, Default 10.'
        required: false
        example: '10'
        type: string
        custom: []
    cleanQueryParameters:
      filter: '1'
      page: '1'
      size: '10'
    bodyParameters: []
    cleanBodyParameters: []
    fileParameters: []
    responses:
      -
        status: 200
        content: |
          {
              "data": [
                  {
                      "id": 128,
                      "payload": "CloneProject",
                      "queue": "default",
                      "time": "1 day ago",
                      "failed": false,
                      "attempt": 1,
                      "exception": "N/A"
                  },
                  {
                      "id": 129,
                      "payload": "CloneProject",
                      "queue": "default",
                      "time": "1 day ago",
                      "failed": false,
                      "attempt": 1,
                      "exception": "Unable to clone project"
                  }
              ],
              "links": {
                  "first": "https://currikistudio.org/api/api/v1/admin/queue-monitor/jobs?page=1",
                  "last": "https://currikistudio.org/api/api/v1/admin/queue-monitor/jobs?page=1",
                  "prev": null,
                  "next": null
              },
              "meta": {
                  "current_page": 1,
                  "from": null,
                  "last_page": 1,
                  "path": "https://currikistudio.org/api/api/v1/admin/queue-monitor/jobs",
                  "per_page": "2",
                  "to": null,
                  "total": 0
              }
          }
        headers: []
        description: ''
        custom: []
    responseFields: []
    auth: []
    controller: null
    method: null
    route: null
    custom: []
  -
    httpMethods:
      - GET
    uri: api/v1/queue-monitor/jobs/retry/all
    metadata:
      groupName: '27. Admin/Queues'
      groupDescription: |-

        APIs for queues monitoring on admin panel.
      subgroup: null
      subgroupDescription: null
      title: 'Retry All Failed Jobs'
      description: 'Retry All Failed Jobs'
      authenticated: false
      custom: []
    headers:
      Content-Type: application/json
      Accept: application/json
    urlParameters: []
    cleanUrlParameters: []
    queryParameters: []
    cleanQueryParameters: []
    bodyParameters: []
    cleanBodyParameters: []
    fileParameters: []
    responses:
      -
        status: 200
        content: |-
          {
            "message": "All failed jobs has been pushed back onto the queue!"
          }
        headers: []
        description: ''
        custom: []
    responseFields: []
    auth: []
    controller: null
    method: null
    route: null
    custom: []
  -
    httpMethods:
      - GET
    uri: api/v1/queue-monitor/jobs/forget/all
    metadata:
      groupName: '27. Admin/Queues'
      groupDescription: |-

        APIs for queues monitoring on admin panel.
      subgroup: null
      subgroupDescription: null
      title: 'Delete All Failed Jobs'
      description: 'Delete All Failed Jobs'
      authenticated: false
      custom: []
    headers:
      Content-Type: application/json
      Accept: application/json
    urlParameters: []
    cleanUrlParameters: []
    queryParameters: []
    cleanQueryParameters: []
    bodyParameters: []
    cleanBodyParameters: []
    fileParameters: []
    responses:
      -
        status: 200
        content: |-
          {
            "message": "All failed jobs deleted successfully!"
          }
        headers: []
        description: ''
        custom: []
    responseFields: []
    auth: []
    controller: null
    method: null
    route: null
    custom: []
  -
    httpMethods:
      - GET
    uri: 'api/v1/queue-monitor/jobs/retry/{job}'
    metadata:
      groupName: '27. Admin/Queues'
      groupDescription: |-

        APIs for queues monitoring on admin panel.
      subgroup: null
      subgroupDescription: null
      title: 'Retry Specific Failed Job'
      description: 'Retry failed job by ID.'
      authenticated: false
      custom: []
    headers:
      Content-Type: application/json
      Accept: application/json
    urlParameters:
      job:
        name: job
        description: 'The integer Id of a job.'
        required: true
        example: '1'
        type: string
        custom: []
    cleanUrlParameters:
      job: '1'
    queryParameters: []
    cleanQueryParameters: []
    bodyParameters: []
    cleanBodyParameters: []
    fileParameters: []
    responses:
      -
        status: 200
        content: |-
          {
            "message": "The failed job [1] has been pushed back onto the queue!"
          }
        headers: []
        description: ''
        custom: []
    responseFields: []
    auth: []
    controller: null
    method: null
    route: null
    custom: []
  -
    httpMethods:
      - GET
    uri: 'api/v1/queue-monitor/jobs/forget/{job}'
    metadata:
      groupName: '27. Admin/Queues'
      groupDescription: |-

        APIs for queues monitoring on admin panel.
      subgroup: null
      subgroupDescription: null
      title: 'Delete Specific Failed Job'
      description: 'Delete failed job by ID.'
      authenticated: false
      custom: []
    headers:
      Content-Type: application/json
      Accept: application/json
    urlParameters:
      job:
        name: job
        description: 'The integer Id of a job.'
        required: true
        example: '1'
        type: string
        custom: []
    cleanUrlParameters:
      job: '1'
    queryParameters: []
    cleanQueryParameters: []
    bodyParameters: []
    cleanBodyParameters: []
    fileParameters: []
    responses:
      -
        status: 200
        content: |-
          {
            "message": "Failed job deleted successfully!"
          }
        headers: []
        description: ''
        custom: []
    responseFields: []
    auth: []
    controller: null
    method: null
    route: null
    custom: []
  -
    httpMethods:
      - GET
    uri: api/v1/queue-monitor
    metadata:
      groupName: '27. Admin/Queues'
      groupDescription: |-

        APIs for queues monitoring on admin panel.
      subgroup: null
      subgroupDescription: null
      title: 'Get All Queues Logs'
      description: 'Returns the paginated response with pagination links (DataTables are fully supported - All Params).'
      authenticated: false
      custom: []
    headers:
      Content-Type: application/json
      Accept: application/json
    urlParameters: []
    cleanUrlParameters: []
    queryParameters:
      filter:
        name: filter
        description: '1 for running jobs, 2 for failed, 3 for completed. Default all.'
        required: false
        example: '1'
        type: string
        custom: []
      page:
        name: page
        description: 'Offset for getting the paginated response, Default 1.'
        required: false
        example: '1'
        type: string
        custom: []
      size:
        name: size
        description: 'Limit for getting the paginated records, Default 10.'
        required: false
        example: '10'
        type: string
        custom: []
    cleanQueryParameters:
      filter: '1'
      page: '1'
      size: '10'
    bodyParameters: []
    cleanBodyParameters: []
    fileParameters: []
    responses:
      -
        status: 200
        content: |
          {
              "data": [
                  {
                      "id": 128,
                      "job_id": "376471",
                      "name": "CloneProject",
                      "queue": "default",
                      "started_at": "23 hours ago",
                      "is_finished": true,
                      "time_elapsed": "8.22 s",
                      "failed": false,
                      "attempt": 1,
                      "exception_message": null
                  },
                  {
                      "id": 127,
                      "job_id": "376470",
                      "name": "CloneActivity",
                      "queue": "default",
                      "started_at": "23 hours ago",
                      "is_finished": true,
                      "time_elapsed": "8.17 s",
                      "failed": false,
                      "attempt": 1,
                      "exception_message": null
                  }
              ],
              "links": {
                  "first": "https://www.currikistudio.org/api/v1/admin/queue-monitor?page=1",
                  "last": "https://www.currikistudio.org/api/v1/admin/queue-monitor?page=9",
                  "prev": null,
                  "next": "https://www.currikistudio.org/api/v1/admin/queue-monitor?page=2"
              },
              "meta": {
                  "current_page": 1,
                  "from": 1,
                  "last_page": 9,
                  "path": "https://www.currikistudio.org/api/v1/admin/queue-monitor",
                  "per_page": "2",
                  "to": 2,
                  "total": 17
              }
          }
        headers: []
        description: ''
        custom: []
    responseFields: []
    auth: []
    controller: null
    method: null
    route: null
    custom: []
